<?xml version="1.0" encoding="UTF-8" standalone="no"?>
<svg
   xmlns:dc="http://purl.org/dc/elements/1.1/"
   xmlns:cc="http://creativecommons.org/ns#"
   xmlns:rdf="http://www.w3.org/1999/02/22-rdf-syntax-ns#"
   xmlns:svg="http://www.w3.org/2000/svg"
   xmlns="http://www.w3.org/2000/svg"
   id="svg8"
   version="1.1"
   viewBox="0 0 111.09206 25.349197"
   height="25.349197mm"
   width="111.09206mm">
  <defs
     id="defs2" />
  <metadata
     id="metadata5">
    <rdf:RDF>
      <cc:Work
         rdf:about="">
        <dc:format>image/svg+xml</dc:format>
        <dc:type
           rdf:resource="http://purl.org/dc/dcmitype/StillImage" />
        <dc:title></dc:title>
      </cc:Work>
    </rdf:RDF>
  </metadata>
  <g
     transform="translate(-47.840105,-83.609803)"
     id="layer1">
    <g
       id="text817"
       style="font-style:normal;font-weight:normal;font-size:10.58333302px;line-height:1.25;font-family:sans-serif;letter-spacing:0px;word-spacing:0px;fill:#990099;fill-opacity:1;stroke:none;stroke-width:0.26458332"
       aria-label="Spinster">
      <path
         id="path4546"
         style="font-style:normal;font-variant:normal;font-weight:800;font-stretch:normal;font-size:25.39999962px;font-family:Montserrat;-inkscape-font-specification:'Montserrat Ultra-Bold';fill:#990099;fill-opacity:1;stroke-width:0.26458332"
         d="m 55.333105,104.387 q -2.159,0 -4.191,-0.5334 -2.032,-0.5334 -3.302,-1.4224 l 1.651,-3.708397 q 1.1938,0.7874 2.7686,1.27 1.5748,0.482597 3.0988,0.482597 2.8956,0 2.8956,-1.447797 0,-0.762 -0.8382,-1.1176 -0.8128,-0.381 -2.6416,-0.7874 -2.0066,-0.4318 -3.3528,-0.9144 -1.3462,-0.508 -2.3114,-1.6002 -0.9652,-1.0922 -0.9652,-2.9464 0,-1.6256 0.889,-2.921 0.889,-1.3208 2.6416,-2.0828 1.778,-0.762 4.3434,-0.762 1.7526,0 3.4544,0.4064 1.7018,0.381 2.9972,1.143 l -1.5494,3.7338 q -2.54,-1.3716 -4.9276,-1.3716 -1.4986,0 -2.1844,0.4572 -0.6858,0.4318 -0.6858,1.143 0,0.7112 0.8128,1.0668 0.8128,0.3556 2.6162,0.7366 2.032,0.4318 3.3528,0.9398 1.3462,0.4826 2.3114,1.5748 0.9906,1.0668 0.9906,2.921 0,1.600197 -0.889,2.895597 -0.889,1.2954 -2.667,2.0828 -1.778,0.762 -4.318,0.762 z" />
      <path
         id="path4548"
         style="font-style:normal;font-variant:normal;font-weight:800;font-stretch:normal;font-size:25.39999962px;font-family:Montserrat;-inkscape-font-specification:'Montserrat Ultra-Bold';fill:#990099;fill-opacity:1;stroke-width:0.26458332"
         d="m 73.938207,90.036003 q 1.8796,0 3.4036,0.889 1.5494,0.8636 2.4384,2.4892 0.9144,1.6002 0.9144,3.7338 0,2.1336 -0.9144,3.759197 -0.889,1.6002 -2.4384,2.4892 -1.524,0.8636 -3.4036,0.8636 -2.413,0 -3.8354,-1.4478 v 6.1468 h -4.826 V 90.264603 h 4.5974 v 1.3716 q 1.3462,-1.6002 4.064,-1.6002 z m -1.016,10.388597 q 1.27,0 2.0828,-0.863597 0.8128,-0.889 0.8128,-2.413 0,-1.524 -0.8128,-2.3876 -0.8128,-0.889 -2.0828,-0.889 -1.27,0 -2.0828,0.889 -0.8128,0.8636 -0.8128,2.3876 0,1.524 0.8128,2.413 0.8128,0.863597 2.0828,0.863597 z" />
      <path
         id="path4565"
         d="m 82.937744,90.264603 h 4.826 V 104.0314 h -4.826 z"
         style="font-style:normal;font-variant:normal;font-weight:800;font-stretch:normal;font-size:25.39999962px;font-family:Montserrat;-inkscape-font-specification:'Montserrat Ultra-Bold';fill:#990099;fill-opacity:1;stroke-width:0.26458332" />
      <path
         id="path4550"
         d="m 85.350744,88.740603 q -1.3208,0 -2.1336,-0.7366 -0.8128,-0.7366 -0.8128,-1.8288 0,-1.0922 0.8128,-1.8288 0.8128,-0.7366 2.1336,-0.7366 1.3208,0 2.1336,0.7112 0.8128,0.6858 0.8128,1.778 0,1.143 -0.8128,1.905 -0.8128,0.7366 -2.1336,0.7366 z"
         style="font-style:normal;font-variant:normal;font-weight:800;font-stretch:normal;font-size:25.39999962px;font-family:Montserrat;-inkscape-font-specification:'Montserrat Ultra-Bold';fill:#990099;fill-opacity:1;stroke-width:0.26458332" />
      <path
         id="path4552"
         style="font-style:normal;font-variant:normal;font-weight:800;font-stretch:normal;font-size:25.39999962px;font-family:Montserrat;-inkscape-font-specification:'Montserrat Ultra-Bold';fill:#990099;fill-opacity:1;stroke-width:0.26458332"
         d="m 99.841444,90.036003 q 2.565396,0 4.114796,1.524 1.5748,1.524 1.5748,4.5974 v 7.873997 h -4.826 v -7.086597 q 0,-2.8194 -2.260596,-2.8194 -1.2446,0 -2.0066,0.8128 -0.7366,0.8128 -0.7366,2.4384 v 6.654797 h -4.826 V 90.264603 h 4.5974 v 1.4986 q 0.8128,-0.8382 1.9304,-1.27 1.1176,-0.4572 2.4384,-0.4572 z" />
      <path
         id="path4554"
         style="font-style:normal;font-variant:normal;font-weight:800;font-stretch:normal;font-size:25.39999962px;font-family:Montserrat;-inkscape-font-specification:'Montserrat Ultra-Bold';fill:#990099;fill-opacity:1;stroke-width:0.26458332"
         d="m 113.53998,104.26 q -1.7272,0 -3.4036,-0.381 -1.6764,-0.4064 -2.6924,-1.0414 l 1.4478,-3.301997 q 0.9398,0.584197 2.2352,0.939797 1.2954,0.3302 2.5654,0.3302 1.1684,0 1.651,-0.2286 0.508,-0.254 0.508,-0.711197 0,-0.4572 -0.6096,-0.635 -0.5842,-0.2032 -1.8796,-0.381 -1.651,-0.2032 -2.8194,-0.5334 -1.143,-0.3302 -1.9812,-1.2192 -0.8382,-0.889 -0.8382,-2.4892 0,-1.3208 0.7874,-2.3368 0.7874,-1.0414 2.286,-1.6256 1.524,-0.6096 3.6322,-0.6096 1.4986,0 2.9718,0.3048 1.4732,0.3048 2.4638,0.8636 l -1.4478,3.2766 q -1.8288,-1.016 -3.9624,-1.016 -1.143,0 -1.6764,0.2794 -0.5334,0.254 -0.5334,0.6858 0,0.4826 0.5842,0.6858 0.5842,0.1778 1.9304,0.381 1.7018,0.254 2.8194,0.5842 1.1176,0.3302 1.9304,1.2192 0.8382,0.8636 0.8382,2.4384 0,1.295397 -0.7874,2.336797 -0.7874,1.016 -2.3368,1.6002 -1.524,0.5842 -3.683,0.5842 z" />
      <path
         id="path4556"
         style="font-style:normal;font-variant:normal;font-weight:800;font-stretch:normal;font-size:25.39999962px;font-family:Montserrat;-inkscape-font-specification:'Montserrat Ultra-Bold';fill:#990099;fill-opacity:1;stroke-width:0.26458332"
         d="m 131.92641,103.4726 q -0.6096,0.381 -1.4986,0.5842 -0.8636,0.2032 -1.8542,0.2032 -2.6924,0 -4.1402,-1.3208 -1.4478,-1.3208 -1.4478,-3.936997 v -4.6228 h -2.0066 v -3.6068 h 2.0066 v -3.5814 h 4.826 v 3.5814 h 3.1496 v 3.6068 h -3.1496 v 4.572 q 0,0.7366 0.381,1.168397 0.4064,0.4064 1.0668,0.4064 0.8382,0 1.4732,-0.4318 z" />
      <path
         id="path4558"
         style="font-style:normal;font-variant:normal;font-weight:800;font-stretch:normal;font-size:25.39999962px;font-family:Montserrat;-inkscape-font-specification:'Montserrat Ultra-Bold';fill:#990099;fill-opacity:1;stroke-width:0.26458332"
         d="m 147.46208,97.173403 q 0,0.0508 -0.0762,1.1938 h -10.0076 q 0.3048,1.0668 1.1684,1.650997 0.889,0.5588 2.2098,0.5588 0.9906,0 1.7018,-0.2794 0.7366,-0.2794 1.4732,-0.914397 l 2.54,2.641597 q -2.0066,2.2352 -5.8674,2.2352 -2.413,0 -4.2418,-0.9144 -1.8288,-0.9144 -2.8448,-2.54 -0.9906,-1.625597 -0.9906,-3.682997 0,-2.032 0.9652,-3.6322 0.9906,-1.6256 2.7178,-2.54 1.7272,-0.9144 3.8862,-0.9144 2.0574,0 3.7338,0.8636 1.6764,0.8382 2.6416,2.4638 0.9906,1.6002 0.9906,3.81 z m -7.3406,-3.7084 q -1.1176,0 -1.8796,0.635 -0.7366,0.635 -0.9398,1.7272 h 5.6388 q -0.2032,-1.0922 -0.9652,-1.7272 -0.7366,-0.635 -1.8542,-0.635 z" />
      <path
         id="path4560"
         style="font-style:normal;font-variant:normal;font-weight:800;font-stretch:normal;font-size:25.39999962px;font-family:Montserrat;-inkscape-font-specification:'Montserrat Ultra-Bold';fill:#990099;fill-opacity:1;stroke-width:0.26458332"
         d="m 154.30936,91.915603 q 0.7366,-0.9398 1.905,-1.397 1.1938,-0.4826 2.7178,-0.4826 v 4.3434 q -0.6604,-0.0762 -1.0922,-0.0762 -1.5494,0 -2.4384,0.8382 -0.8636,0.8382 -0.8636,2.5654 v 6.324597 h -4.826 V 90.264603 h 4.5974 z" />
    </g>
    <text
       id="text4524"
       y="121.53756"
       x="98.355186"
       style="font-style:normal;font-weight:normal;font-size:10.58333302px;line-height:1.25;font-family:sans-serif;letter-spacing:0px;word-spacing:0px;fill:#000000;fill-opacity:1;stroke:none;stroke-width:0.26458332"
       xml:space="preserve"><tspan
         style="stroke-width:0.26458332"
         y="131.07054"
         x="98.355186"
         id="tspan4522"></tspan></text>
  </g>
</svg>
